Demos/Color_Thresholding/test.vcd
$date
	Sun Dec  7 15:00:54 2014
$end
$version
	Icarus Verilog
$end
$timescale
	1s
$end
$scope module processor_tb $end
$scope module MIPS $end
$var wire 1 ! _reset $end
$var wire 6 " afunc [5:0] $end
$var wire 32 # alu_in1 [31:0] $end
$var wire 1 $ alu_op $end
$var wire 32 % alu_out [31:0] $end
$var wire 2 & bfunc [1:0] $end
$var wire 1 ' bu_out $end
$var wire 1 ( clk $end
$var wire 1 ) d_in $end
$var wire 30 * daddr [31:2] $end
$var wire 32 + dc_din [31:0] $end
$var wire 32 , dc_out [31:0] $end
$var wire 3 - dfunc [2:0] $end
$var wire 32 . din [31:0] $end
$var wire 32 / dout [31:0] $end
$var wire 30 0 iaddr [31:2] $end
$var wire 32 1 idata [31:0] $end
$var wire 32 2 r0 [31:0] $end
$var wire 32 3 r1 [31:0] $end
$var wire 32 4 r2 [31:0] $end
$var wire 1 5 reg_in $end
$var wire 5 6 rsel0 [4:0] $end
$var wire 5 7 rsel1 [4:0] $end
$var wire 5 8 rsel2 [4:0] $end
$var wire 1 9 rw $end
$scope module c $end
$var wire 1 : _and $end
$var wire 1 ; _nor $end
$var wire 1 < _or $end
$var wire 1 ! _reset $end
$var wire 1 = _xor $end
$var wire 1 > add $end
$var wire 1 ? addi $end
$var wire 1 @ addiu $end
$var wire 1 A adds $end
$var wire 1 B addu $end
$var wire 1 C addus $end
$var wire 1 D andi $end
$var wire 1 E beq $end
$var wire 1 F bgtz $end
$var wire 1 G blez $end
$var wire 1 H bne $end
$var wire 1 I break $end
$var wire 1 J cache $end
$var wire 1 ( clk $end
$var wire 1 K cop0 $end
$var wire 1 L cop1 $end
$var wire 1 M cop1x $end
$var wire 32 N din [31:0] $end
$var wire 1 O div $end
$var wire 1 P divu $end
$var wire 6 Q funct [5:0] $end
$var wire 16 R imme [15:0] $end
$var wire 32 S inst [31:0] $end
$var wire 1 T j $end
$var wire 1 U jal $end
$var wire 1 V jalr $end
$var wire 1 W jr $end
$var wire 1 X lb $end
$var wire 1 Y lbu $end
$var wire 1 Z ldc1 $end
$var wire 1 [ lh $end
$var wire 1 \ lhu $end
$var wire 1 ] ll $end
$var wire 1 ^ lui $end
$var wire 1 _ lw $end
$var wire 1 ` lwc1 $end
$var wire 1 a lwl $end
$var wire 1 b lwr $end
$var wire 1 c mfhi $end
$var wire 1 d mflo $end
$var wire 1 e movci $end
$var wire 1 f movn $end
$var wire 1 g movz $end
$var wire 1 h mthi $end
$var wire 1 i mtlo $end
$var wire 1 j mult $end
$var wire 1 k multu $end
$var wire 26 l offset [25:0] $end
$var wire 6 m opcode [5:0] $end
$var wire 1 n ori $end
$var wire 1 o perf $end
$var wire 1 p r1 $end
$var wire 1 q r10 $end
$var wire 1 r r11 $end
$var wire 1 s r12 $end
$var wire 1 t r13 $end
$var wire 1 u r14 $end
$var wire 1 v r15 $end
$var wire 1 w r16 $end
$var wire 1 x r17 $end
$var wire 1 y r18 $end
$var wire 1 z r19 $end
$var wire 1 { r2 $end
$var wire 1 | r20 $end
$var wire 1 } r21 $end
$var wire 1 ~ r22 $end
$var wire 1 !" r23 $end
$var wire 1 "" r24 $end
$var wire 1 #" r25 $end
$var wire 1 $" r26 $end
$var wire 1 %" r27 $end
$var wire 1 &" r28 $end
$var wire 1 '" r29 $end
$var wire 1 (" r3 $end
$var wire 1 )" r30 $end
$var wire 1 *" r31 $end
$var wire 1 +" r32 $end
$var wire 1 ," r33 $end
$var wire 1 -" r34 $end
$var wire 1 ." r35 $end
$var wire 1 /" r36 $end
$var wire 1 0" r37 $end
$var wire 1 1" r38 $end
$var wire 1 2" r39 $end
$var wire 1 3" r4 $end
$var wire 1 4" r40 $end
$var wire 1 5" r41 $end
$var wire 1 6" r42 $end
$var wire 1 7" r43 $end
$var wire 1 8" r44 $end
$var wire 1 9" r45 $end
$var wire 1 :" r46 $end
$var wire 1 ;" r47 $end
$var wire 1 <" r48 $end
$var wire 1 =" r49 $end
$var wire 1 >" r5 $end
$var wire 1 ?" r50 $end
$var wire 1 @" r6 $end
$var wire 1 A" r7 $end
$var wire 1 B" r8 $end
$var wire 1 C" r9 $end
$var wire 5 D" rd [4:0] $end
$var wire 1 E" regimm $end
$var wire 5 F" rs [4:0] $end
$var wire 5 G" rt [4:0] $end
$var wire 1 H" sb $end
$var wire 1 I" sc $end
$var wire 1 J" sdc1 $end
$var wire 1 K" sh $end
$var wire 5 L" shamt [4:0] $end
$var wire 1 M" sll $end
$var wire 1 N" sllv $end
$var wire 1 O" slt $end
$var wire 1 P" slti $end
$var wire 1 Q" sltiu $end
$var wire 1 R" sltu $end
$var wire 1 S" special $end
$var wire 1 T" special2 $end
$var wire 1 U" sra $end
$var wire 1 V" srav $end
$var wire 1 W" srl $end
$var wire 1 X" srlv $end
$var wire 1 Y" sub $end
$var wire 1 Z" subs $end
$var wire 1 [" subu $end
$var wire 1 \" subus $end
$var wire 1 ]" sw $end
$var wire 1 ^" swc1 $end
$var wire 1 _" swl $end
$var wire 1 `" swr $end
$var wire 1 a" sync $end
$var wire 1 b" syscall $end
$var wire 1 c" teq $end
$var wire 1 d" tne $end
$var wire 1 e" xori $end
$var reg 1 f" alu_op $end
$var reg 2 g" bfunc [1:0] $end
$var reg 1 h" d_in $end
$var reg 3 i" dfunc [2:0] $end
$var reg 32 j" dout [31:0] $end
$var reg 6 k" func [5:0] $end
$var reg 30 l" iaddr [31:2] $end
$var reg 2 m" j_mode [1:0] $end
$var reg 1 n" reg_in $end
$var reg 5 o" rsel0 [4:0] $end
$var reg 5 p" rsel1 [4:0] $end
$var reg 5 q" rsel2 [4:0] $end
$var reg 1 r" rw $end
$upscope $end
$scope module b $end
$var wire 2 s" func [1:0] $end
$var wire 32 t" in0 [31:0] $end
$var wire 32 u" in1 [31:0] $end
$var reg 1 v" out $end
$upscope $end
$scope module dc $end
$var wire 32 w" _addr [31:0] $end
$var wire 32 x" _in [31:0] $end
$var wire 30 y" addr [31:2] $end
$var wire 32 z" base [31:0] $end
$var wire 8 {" byte [7:0] $end
$var wire 32 |" din [31:0] $end
$var wire 3 }" func [2:0] $end
$var wire 16 ~" halfword [15:0] $end
$var wire 32 !# in [31:0] $end
$var wire 16 "# offset [15:0] $end
$var wire 32 ## rin [31:0] $end
$var wire 1 9 rw $end
$var reg 32 $# out [31:0] $end
$upscope $end
$scope module i $end
$var wire 30 %# addr [31:2] $end
$var wire 32 &# data [31:0] $end
$upscope $end
$scope module d $end
$var wire 30 '# addr [31:2] $end
$var wire 1 ( clk $end
$var wire 32 (# in [31:0] $end
$var wire 32 )# out [31:0] $end
$var wire 1 9 rw $end
$upscope $end
$scope module m_din $end
$var wire 32 *# in0 [31:0] $end
$var wire 32 +# in1 [31:0] $end
$var wire 32 ,# out [31:0] $end
$var wire 1 ) sel $end
$upscope $end
$scope module m_alu $end
$var wire 32 -# in0 [31:0] $end
$var wire 32 .# in1 [31:0] $end
$var wire 32 /# out [31:0] $end
$var wire 1 $ sel $end
$upscope $end
$scope module m_reg $end
$var wire 32 0# in0 [31:0] $end
$var wire 32 1# in1 [31:0] $end
$var wire 32 2# out [31:0] $end
$var wire 1 5 sel $end
$upscope $end
$scope module reg0 $end
$var wire 1 ! _reset $end
$var wire 1 ( clk $end
$var wire 8 3# in [7:0] $end
$var wire 8 4# out0 [7:0] $end
$var wire 8 5# out1 [7:0] $end
$var wire 5 6# sel0 [4:0] $end
$var wire 5 7# sel1 [4:0] $end
$var wire 5 8# sel2 [4:0] $end
$upscope $end
$scope module reg1 $end
$var wire 1 ! _reset $end
$var wire 1 ( clk $end
$var wire 8 9# in [7:0] $end
$var wire 8 :# out0 [7:0] $end
$var wire 8 ;# out1 [7:0] $end
$var wire 5 <# sel0 [4:0] $end
$var wire 5 =# sel1 [4:0] $end
$var wire 5 ># sel2 [4:0] $end
$upscope $end
$scope module reg2 $end
$var wire 1 ! _reset $end
$var wire 1 ( clk $end
$var wire 8 ?# in [7:0] $end
$var wire 8 @# out0 [7:0] $end
$var wire 8 A# out1 [7:0] $end
$var wire 5 B# sel0 [4:0] $end
$var wire 5 C# sel1 [4:0] $end
$var wire 5 D# sel2 [4:0] $end
$upscope $end
$scope module reg3 $end
$var wire 1 ! _reset $end
$var wire 1 ( clk $end
$var wire 8 E# in [7:0] $end
$var wire 8 F# out0 [7:0] $end
$var wire 8 G# out1 [7:0] $end
$var wire 5 H# sel0 [4:0] $end
$var wire 5 I# sel1 [4:0] $end
$var wire 5 J# sel2 [4:0] $end
$upscope $end
$scope module a0 $end
$var wire 6 K# func [5:0] $end
$var wire 8 L# in0 [7:0] $end
$var wire 8 M# in1 [7:0] $end
$var reg 8 N# hi [7:0] $end
$var reg 8 O# lo [7:0] $end
$var reg 8 P# out [7:0] $end
$var reg 1 Q# overflow $end
$upscope $end
$scope module a1 $end
$var wire 6 R# func [5:0] $end
$var wire 8 S# in0 [7:0] $end
$var wire 8 T# in1 [7:0] $end
$var reg 8 U# hi [7:0] $end
$var reg 8 V# lo [7:0] $end
$var reg 8 W# out [7:0] $end
$var reg 1 X# overflow $end
$upscope $end
$scope module a2 $end
$var wire 6 Y# func [5:0] $end
$var wire 8 Z# in0 [7:0] $end
$var wire 8 [# in1 [7:0] $end
$var reg 8 \# hi [7:0] $end
$var reg 8 ]# lo [7:0] $end
$var reg 8 ^# out [7:0] $end
$var reg 1 _# overflow $end
$upscope $end
$scope module a3 $end
$var wire 6 `# func [5:0] $end
$var wire 8 a# in0 [7:0] $end
$var wire 8 b# in1 [7:0] $end
$var reg 8 c# hi [7:0] $end
$var reg 8 d# lo [7:0] $end
$var reg 8 e# out [7:0] $end
$var reg 1 f# overflow $end
$upscope $end
$upscope $end
$upscope $end
$enddefinitions $end
#0
$dumpvars
xf#
b0 e#
bx d#
bx c#
b0 b#
b0 a#
b0 `#
x_#
b0 ^#
bx ]#
bx \#
b0 [#
b0 Z#
b0 Y#
xX#
b0 W#
bx V#
bx U#
b0 T#
b0 S#
b0 R#
xQ#
b0 P#
bx O#
bx N#
b0 M#
b0 L#
b0 K#
b0 J#
b0 I#
b0 H#
b0 G#
b0 F#
b0 E#
b0 D#
b0 C#
b0 B#
b0 A#
b0 @#
b0 ?#
b0 >#
b0 =#
b0 <#
b0 ;#
b0 :#
b0 9#
b0 8#
b0 7#
b0 6#
b0 5#
b0 4#
b0 3#
b0 2#
b11111111111111111111111111100010 1#
b0 0#
b0 /#
b0 .#
b0 -#
b0 ,#
b1 +#
b0 *#
b11111011000100111100010 )#
b11111111111111111111111111100010 (#
b0 '#
bx &#
b111111111111111111111111111111 %#
b11111111111111111111111111100010 $#
b0 ##
b0 "#
b11111011000100111100010 !#
b1000100111100010 ~"
b0 }"
b11111011000100111100010 |"
b11100010 {"
b0 z"
b0 y"
b0 x"
b0 w"
1v"
b0 u"
b0 t"
b0 s"
0r"
b0 q"
b0 p"
b0 o"
0n"
b0 m"
b111111111111111111111111111111 l"
b0 k"
b0 j"
b0 i"
0h"
b0 g"
0f"
xe"
xd"
xc"
xb"
xa"
x`"
x_"
x^"
x]"
x\"
x["
xZ"
xY"
xX"
xW"
xV"
xU"
xT"
xS"
xR"
xQ"
xP"
xO"
xN"
xM"
bx L"
xK"
xJ"
xI"
xH"
bx G"
bx F"
xE"
bx D"
xC"
xB"
xA"
x@"
x?"
x>"
x="
x<"
x;"
x:"
x9"
x8"
x7"
x6"
x5"
x4"
x3"
x2"
x1"
x0"
x/"
x."
x-"
x,"
x+"
x*"
x)"
x("
x'"
x&"
x%"
x$"
x#"
x""
x!"
x~
x}
x|
x{
xz
xy
xx
xw
xv
xu
xt
xs
xr
xq
xp
xo
xn
bx m
bx l
xk
xj
xi
xh
xg
xf
xe
xd
xc
xb
xa
x`
x_
x^
x]
x\
x[
xZ
xY
xX
xW
xV
xU
xT
bx S
bx R
bx Q
xP
xO
b0 N
xM
xL
xK
xJ
xI
xH
xG
xF
xE
xD
xC
xB
xA
x@
x?
x>
x=
x<
x;
x:
09
b0 8
b0 7
b0 6
05
b0 4
b0 3
b0 2
bx 1
b111111111111111111111111111111 0
b0 /
b0 .
b0 -
b11111111111111111111111111100010 ,
b11111011000100111100010 +
b0 *
0)
0(
1'
b0 &
b0 %
0$
b0 #
b0 "
0!
$end
#1
1!
#2
b100000 k"
b100000 "
b100000 K#
b100000 R#
b100000 Y#
b100000 `#
b1 q"
b1 8
b1 8#
b1 >#
b1 D#
b1 J#
1>
0?"
0="
0<"
0;"
0:"
09"
08"
07"
06"
0d"
05"
0c"
0\"
0Z"
0C
0A
04"
02"
01"
00"
0R"
0O"
0/"
0."
0;
0=
0<
0:
0["
0Y"
0B
0-"
0,"
0+"
0*"
0P
0O
0k
0j
0)"
0'"
0&"
0%"
0i
0d
0h
0c
0a"
0$"
0I
0b"
0f
0g
0V
0W
0V"
0X"
0#"
0N"
0U"
0W"
0e
0M"
1S"
0E"
0T
0U
0E
0H
0G
0F
0?
0@
0P"
0Q"
0D
0n
0e"
0^
0K
0L
0p
0M
0{
0("
03"
0>"
0@"
0A"
0B"
0C"
0T"
0q
0r
0s
0X
0[
0a
0_
0Y
0\
0b
0t
0H"
0K"
0_"
0]"
0u
0v
0`"
0J
0]
0`
0w
0o
0x
0Z
0y
0z
0I"
0^"
0|
0}
0~
0J"
0!"
0""
b100000100000 l
b100000100000 R
b0 m
b0 F"
b0 G"
b1 D"
b0 L"
b100000 Q
b0 l"
b100000100000 1
b100000100000 S
b100000100000 &#
b0 0
b0 %#
1(
#4
0(
#6
b100000000000000000000 $#
b100000000000000000000 ,
b100000000000000000000 (#
b100000000000000000000 1#
b1000101011100010 ~"
b11110001000101011100010 !#
b11110001000101011100010 +
b11110001000101011100010 |"
b11110001000101011100010 )#
b100 *
b100 y"
b100 '#
b0 E#
b10000 ?#
b0 9#
b0 3#
b10000 "#
b10000 w"
b100000000000000000000 4
b100000000000000000000 2#
1n"
15
b111 i"
b111 -
b111 }"
b10000 j"
b10000 /
b10000 .#
0>
0c
b0 e#
b0 ^#
b0 W#
b0 P#
b0 %
b0 0#
0S"
1^
b0 p"
b0 7
b0 7#
b0 =#
b0 C#
b0 I#
b100000000000010000 l
b10000 R
b1111 m
b10 G"
b0 D"
b10000 Q
b10 q"
b10 8
b10 8#
b10 >#
b10 D#
b10 J#
b0 k"
b0 "
b0 K#
b0 R#
b0 Y#
b0 `#
b1 l"
b111100000000100000000000010000 1
b111100000000100000000000010000 S
b111100000000100000000000010000 &#
b1 0
b1 %#
1(
#8
0(
#10
b11111111 ?#
b111111110000000000000000 4
b111111110000000000000000 2#
b111111110000000000000000 $#
b111111110000000000000000 ,
b111111110000000000000000 (#
b111111110000000000000000 1#
b10111000100101010101110 !#
b1011100 ~"
b0 {"
b10111000100101010101110 +
b10111000100101010101110 |"
b10111000100101010101110 )#
b111111 *
b111111 y"
b111111 '#
b11111111 "#
b11111111 w"
b1010000000011111111 l
b11111111 R
b101 G"
b11 L"
b111111 Q
b11111111 j"
b11111111 /
b11111111 .#
b111 i"
b111 -
b111 }"
b101 q"
b101 8
b101 8#
b101 >#
b101 D#
b101 J#
1n"
15
b10 l"
b111100000001010000000011111111 1
b111100000001010000000011111111 S
b111100000001010000000011111111 &#
b10 0
b10 %#
1(
#12
0(
#14
bx $#
bx ,
bx (#
bx 1#
bx {"
b11111111 9#
b11111111 3#
bx ~"
b11111111 W#
b11111111 P#
b11111111 T#
b11111111 M#
b11111111 ?#
bx !#
b11111111 ^#
b111111111111111111111111 %
b111111111111111111111111 0#
b1111111111111111 #
b1111111111111111 /#
b111111111111111111111111 4
b111111111111111111111111 2#
0v"
b0 +#
0'
b11111111 Z#
b111111110000000000000000 .
b111111110000000000000000 N
b111111110000000000000000 ,#
bx +
bx |"
bx )#
b1111111011111111111111 *
b1111111011111111111111 y"
b1111111011111111111111 '#
b100101 k"
b100101 "
b100101 K#
b100101 R#
b100101 Y#
b100101 `#
1f"
1$
b11111111 @#
b111111110000000000000000 2
b111111110000000000000000 t"
b111111110000000000000000 z"
b111111110000000000000000 *#
b1111111111111111 "#
b111111101111111111111111 w"
1n
0^
b101 o"
b101 6
b101 6#
b101 <#
b101 B#
b101 H#
b101001011111111111111111 l
b1111111111111111 R
b1101 m
b101 F"
b11111 D"
b11111 L"
b1111111111111111 j"
b1111111111111111 /
b1111111111111111 .#
b0 i"
b0 -
b0 }"
b101 q"
b101 8
b101 8#
b101 >#
b101 D#
b101 J#
0n"
05
b11 l"
b110100101001011111111111111111 1
b110100101001011111111111111111 S
b110100101001011111111111111111 &#
b11 0
b11 %#
1(
#16
b11111111 L#
b11111111 S#
b1111111111111111111111 *
b1111111111111111111111 y"
b1111111111111111111111 '#
b111111111111111111111111 .
b111111111111111111111111 N
b111111111111111111111111 ,#
b11111111 4#
b11111111 :#
b111111111111111111111111 2
b111111111111111111111111 t"
b111111111111111111111111 z"
b111111111111111111111111 *#
b111111111111111111111110 w"
0(
#18
b11111110000000000000000 $#
b11111110000000000000000 ,
b11111110000000000000000 (#
b11111110000000000000000 1#
b0 {"
b1101101 ~"
b11011011000001111011111 !#
b0 E#
b1111111 ?#
b0 9#
b0 3#
b0 L#
b0 S#
1v"
b1 +#
1'
b0 Z#
b11011011000001111011111 +
b11011011000001111011111 |"
b11011011000001111011111 )#
b11111 *
b11111 y"
b11111 '#
b0 .
b0 N
b0 ,#
b11111110000000000000000 4
b11111110000000000000000 2#
b0 T#
b0 M#
1n"
15
b111 i"
b111 -
b111 }"
b1111111 "#
b0 4#
b0 :#
b0 @#
b0 2
b0 t"
b0 z"
b0 *#
b1111111 w"
b0 e#
b0 ^#
b0 W#
b0 P#
b0 %
b0 0#
b0 #
b0 /#
0n
1^
b1100000000001111111 l
b1111111 R
b1111 m
b0 F"
b110 G"
b0 D"
b1 L"
b1111111 j"
b1111111 /
b1111111 .#
b0 o"
b0 6
b0 6#
b0 <#
b0 B#
b0 H#
b110 q"
b110 8
b110 8#
b110 >#
b110 D#
b110 J#
b0 k"
b0 "
b0 K#
b0 R#
b0 Y#
b0 `#
0f"
0$
b100 l"
b111100000001100000000001111111 1
b111100000001100000000001111111 S
b111100000001100000000001111111 &#
b100 0
b100 %#
1(
#20
0(
#22
bx $#
bx ,
bx (#
bx 1#
bx {"
b1111111 9#
b1111111 3#
bx ~"
b1111111 W#
b1111111 P#
b1111111 T#
b1111111 M#
b1111111 ?#
bx !#
b1111111 ^#
b11111110111111101111111 %
b11111110111111101111111 0#
b111111101111111 #
b111111101111111 /#
b11111110111111101111111 4
b11111110111111101111111 2#
0v"
b0 +#
0'
b1111111 Z#
b11111110000000000000000 .
b11111110000000000000000 N
b11111110000000000000000 ,#
bx +
bx |"
bx )#
b111111101111111011111 *
b111111101111111011111 y"
b111111101111111011111 '#
b100101 k"
b100101 "
b100101 K#
b100101 R#
b100101 Y#
b100101 `#
1f"
1$
b1111111 @#
b11111110000000000000000 2
b11111110000000000000000 t"
b11111110000000000000000 z"
b11111110000000000000000 *#
b111111101111111 "#
b11111110111111101111111 w"
1n
0^
b110 o"
b110 6
b110 6#
b110 <#
b110 B#
b110 H#
b110001100111111101111111 l
b111111101111111 R
b1101 m
b110 F"
b1111 D"
b11101 L"
b111111101111111 j"
b111111101111111 /
b111111101111111 .#
b0 i"
b0 -
b0 }"
b110 q"
b110 8
b110 8#
b110 >#
b110 D#
b110 J#
0n"
05
b101 l"
b110100110001100111111101111111 1
b110100110001100111111101111111 S
b110100110001100111111101111111 &#
b101 0
b101 %#
1(
#24
b1111111 L#
b1111111 S#
b111111111111110111111 *
b111111111111110111111 y"
b111111111111110111111 '#
b11111110111111101111111 .
b11111110111111101111111 N
b11111110111111101111111 ,#
b1111111 4#
b1111111 :#
b11111110111111101111111 2
b11111110111111101111111 t"
b11111110111111101111111 z"
b11111110111111101111111 *#
b11111111111111011111110 w"
0(
#26
b11111011000100111100010 $#
b11111011000100111100010 ,
b11111011000100111100010 (#
b11111011000100111100010 1#
b11100010 {"
b1000100111100010 ~"
b11111011000100111100010 !#
b0 E#
b1111101 ?#
b10001001 9#
b11100010 3#
b0 ^#
b0 L#
b0 S#
1v"
b1 +#
1'
b0 Z#
b11111011000100111100010 +
b11111011000100111100010 |"
b11111011000100111100010 )#
b0 *
b0 y"
b0 '#
b0 .
b0 N
b0 ,#
b11111011000100111100010 4
b11111011000100111100010 2#
b0 T#
b0 M#
1n"
15
b11 i"
b11 -
b11 }"
b0 "#
b0 4#
b0 :#
b0 @#
b0 2
b0 t"
b0 z"
b0 *#
b0 w"
b0 W#
b0 P#
b0 %
b0 0#
b0 #
b0 /#
0n
1_
b1000110000000000000000 l
b0 R
b100011 m
b1 F"
b11 G"
b0 D"
b0 L"
b0 Q
b0 j"
b0 /
b0 .#
b1 o"
b1 6
b1 6#
b1 <#
b1 B#
b1 H#
b11 q"
b11 8
b11 8#
b11 >#
b11 D#
b11 J#
b0 k"
b0 "
b0 K#
b0 R#
b0 Y#
b0 `#
0f"
0$
b110 l"
b10001100001000110000000000000000 1
b10001100001000110000000000000000 S
b10001100001000110000000000000000 &#
b110 0
b110 %#
1(
#28
0(
#30
bx $#
bx ,
bx (#
bx 1#
b1111101 [#
b10001001 T#
b11100010 M#
b11111011000100111100010 x"
b11111011000100111100010 #
b11111011000100111100010 /#
bx {"
b11100010 5#
b10001001 ;#
b1111101 A#
b11111011000100111100010 3
b11111011000100111100010 u"
b11111011000100111100010 ##
b11111011000100111100010 -#
b101011 k"
b101011 "
b101011 K#
b101011 R#
b101011 Y#
b101011 `#
b11 p"
b11 7
b11 7#
b11 =#
b11 C#
b11 I#
b0 ?#
b1 9#
b1 3#
b1 P#
bx ~"
b1 W#
b0 ^#
b100000001 %
b100000001 0#
bx !#
1R"
b100000001 4
b100000001 2#
b1111111 L#
b1111111 S#
0v"
b0 +#
0'
b1111111 Z#
bx +
bx |"
bx )#
b111111101111111011111 *
b111111101111111011111 y"
b111111101111111011111 '#
b11111110111111101111111 .
b11111110111111101111111 N
b11111110111111101111111 ,#
b0 "#
b1111111 4#
b1111111 :#
b1111111 @#
b11111110111111101111111 2
b11111110111111101111111 t"
b11111110111111101111111 z"
b11111110111111101111111 *#
b11111110111111101111111 w"
1S"
0_
b0 j"
b0 /
b0 .#
b110000110001100000101011 l
b1100000101011 R
b0 m
b110 F"
b11 D"
b101011 Q
b0 i"
b0 -
b0 }"
b110 o"
b110 6
b110 6#
b110 <#
b110 B#
b110 H#
b11 q"
b11 8
b11 8#
b11 >#
b11 D#
b11 J#
0n"
05
b111 l"
b110000110001100000101011 1
b110000110001100000101011 S
b110000110001100000101011 &#
b111 0
b111 %#
1(
#32
b0 9#
b0 3#
b0 4
b0 2#
b0 W#
b0 P#
b0 %
b0 0#
b0 [#
b1 T#
b1 M#
b100000001 x"
b100000001 #
b100000001 /#
b1 5#
b1 ;#
b0 A#
b100000001 3
b100000001 u"
b100000001 ##
b100000001 -#
0(
#34
b111111 $#
b111111 ,
b111111 (#
b111111 1#
b111111 {"
b11111110101001 ~"
b10101000011111110101001 !#
b11111111 [#
b11111111 T#
b11111111 M#
b1 L#
b1 S#
b0 Z#
b10101000011111110101001 +
b10101000011111110101001 |"
b10101000011111110101001 )#
b1000000 *
b1000000 y"
b1000000 '#
b100000001 .
b100000001 N
b100000001 ,#
b111111111111111111111111 x"
b111111111111111111111111 #
b111111111111111111111111 /#
0R"
1k
b1 4#
b1 :#
b0 @#
b100000001 2
b100000001 t"
b100000001 z"
b100000001 *#
b100000001 w"
b11111111 5#
b11111111 ;#
b11111111 A#
b111111111111111111111111 3
b111111111111111111111111 u"
b111111111111111111111111 ##
b111111111111111111111111 -#
b0 c#
b0 d#
b0 \#
b0 ]#
b0 U#
b11111111 V#
b0 N#
b11111111 O#
b11001010000000000011001 l
b11001 R
b11 F"
b101 G"
b0 D"
b11001 Q
b11 o"
b11 6
b11 6#
b11 <#
b11 B#
b11 H#
b101 p"
b101 7
b101 7#
b101 =#
b101 C#
b101 I#
b0 q"
b0 8
b0 8#
b0 >#
b0 D#
b0 J#
b11001 k"
b11001 "
b11001 K#
b11001 R#
b11001 Y#
b11001 `#
b1000 l"
b11001010000000000011001 1
b11001010000000000011001 S
b11001010000000000011001 &#
b1000 0
b1000 %#
1(
#36
0(
#38
b11111111111111111111111111100010 $#
b11111111111111111111111111100010 ,
b11111111111111111111111111100010 (#
b11111111111111111111111111100010 1#
b1000100111100010 ~"
b11100010 {"
b11111011000100111100010 !#
b0 [#
b0 T#
b0 M#
b11111111 9#
b11111111 3#
b0 L#
b0 S#
b11111011000100111100010 +
b11111011000100111100010 |"
b11111011000100111100010 )#
b0 *
b0 y"
b0 '#
b0 .
b0 N
b0 ,#
1v"
b1 +#
1'
b0 x"
b0 #
b0 /#
b1111111111111111 4
b1111111111111111 2#
0k
1d
b0 4#
b0 :#
b0 2
b0 t"
b0 z"
b0 *#
b0 w"
b0 5#
b0 ;#
b0 A#
b0 3
b0 u"
b0 ##
b0 -#
b11111111 W#
b11111111 P#
b1111111111111111 %
b1111111111111111 0#
b11 q"
b11 8
b11 8#
b11 >#
b11 D#
b11 J#
b1100000010010 l
b1100000010010 R
b0 F"
b0 G"
b11 D"
b10010 Q
b0 o"
b0 6
b0 6#
b0 <#
b0 B#
b0 H#
b0 p"
b0 7
b0 7#
b0 =#
b0 C#
b0 I#
b10010 k"
b10010 "
b10010 K#
b10010 R#
b10010 Y#
b10010 `#
b1001 l"
b1100000010010 1
b1100000010010 S
b1100000010010 &#
b1001 0
b1001 %#
1(
#40
0(
#42
b1111111111111111 $#
b1111111111111111 ,
b1111111111111111 (#
b1111111111111111 1#
b11111111 {"
b11111111 T#
b11111111 M#
b1111111111111111 #
b1111111111111111 /#
b1111111111111111 ~"
b0 9#
b0 3#
b1111111111111111 !#
0v"
b0 +#
0'
b11111011000100111100010 x"
b0 4
b0 2#
1r"
19
b11 i"
b11 -
b11 }"
0f"
0$
0d
0M"
b11111111 5#
b11111111 ;#
b1111111111111111 3
b1111111111111111 u"
b1111111111111111 ##
b1111111111111111 -#
b0 W#
b0 P#
b0 %
b0 0#
0S"
1]"
b11 p"
b11 7
b11 7#
b11 =#
b11 C#
b11 I#
b1 o"
b1 6
b1 6#
b1 <#
b1 B#
b1 H#
b1000110000000000000000 l
b0 R
b101011 m
b1 F"
b11 G"
b0 D"
b0 Q
b0 q"
b0 8
b0 8#
b0 >#
b0 D#
b0 J#
b0 k"
b0 "
b0 K#
b0 R#
b0 Y#
b0 `#
b1010 l"
b10101100001000110000000000000000 1
b10101100001000110000000000000000 S
b10101100001000110000000000000000 &#
b1010 0
b1010 %#
1(
#44
b1111111111111111 x"
b1111111111111111 +
b1111111111111111 |"
b1111111111111111 )#
0(
#46
b11111111111111111111111111011111 $#
b11111111111111111111111111011111 ,
b11111111111111111111111111011111 (#
b11111111111111111111111111011111 1#
b11011111 {"
b0 9#
b110000 3#
b110000 4
b110000 2#
b1000001011011111 ~"
b0 T#
b110000 M#
b0 W#
b110000 P#
b110000 %
b110000 0#
b0 x"
b11011001000001011011111 +
b11011001000001011011111 |"
b11011001000001011011111 )#
b1100 *
b1100 y"
b1100 '#
1v"
b1 +#
1'
b110000 #
b110000 /#
1f"
1$
b1001 k"
b1001 "
b1001 K#
b1001 R#
b1001 Y#
b1001 `#
b11111 q"
b11111 8
b11111 8#
b11111 >#
b11111 D#
b11111 J#
b10 m"
b110000 "#
b110000 w"
b11011001000001011011111 !#
b0 5#
b0 ;#
b0 3
b0 u"
b0 ##
b0 -#
1U
0]"
b110000 j"
b110000 /
b110000 .#
b1110 l
b1110 R
b11 m
b0 F"
b0 G"
b1110 Q
0r"
09
b0 i"
b0 -
b0 }"
b0 o"
b0 6
b0 6#
b0 <#
b0 B#
b0 H#
b0 p"
b0 7
b0 7#
b0 =#
b0 C#
b0 I#
b1011 l"
b1100000000000000000000001110 1
b1100000000000000000000001110 S
b1100000000000000000000001110 &#
b1011 0
b1011 %#
1(
#48
0(
#50
b11111111111111111111111111100010 $#
b11111111111111111111111111100010 ,
b11111111111111111111111111100010 (#
b11111111111111111111111111100010 1#
b11100010 {"
b1000100111100010 ~"
b100 3#
b100 4
b100 2#
b11111011000100111100010 !#
b1 o"
b1 6
b1 6#
b1 <#
b1 B#
b1 H#
b100 P#
b100 %
b100 0#
b11111011000100111100010 +
b11111011000100111100010 |"
b11111011000100111100010 )#
b1 *
b1 y"
b1 '#
b100 M#
0U
1@
b100 "#
b100 w"
b100 #
b100 /#
b1000010000000000000100 l
b100 R
b1001 m
b1 F"
b1 G"
b100 Q
b100 j"
b100 /
b100 .#
b1 q"
b1 8
b1 8#
b1 >#
b1 D#
b1 J#
b100001 k"
b100001 "
b100001 K#
b100001 R#
b100001 Y#
b100001 `#
1f"
1$
b0 m"
b1110 l"
b100100001000010000000000000100 1
b100100001000010000000000000100 S
b100100001000010000000000000100 &#
b1110 0
b1110 %#
1(
#52
b11111111111111111111111111011111 $#
b11111111111111111111111111011111 ,
b11111111111111111111111111011111 (#
b11111111111111111111111111011111 1#
b11011111 {"
b1000 3#
b1000100111011111 ~"
b1000 4
b1000 2#
b1000 P#
b1000 %
b1000 0#
b100001011000100111011111 !#
0v"
b0 +#
0'
b100 L#
b100001011000100111011111 +
b100001011000100111011111 |"
b100001011000100111011111 )#
b10 *
b10 y"
b10 '#
b100 .
b100 N
b100 ,#
b100 4#
b100 2
b100 t"
b100 z"
b100 *#
b1000 w"
0(
