Demos/Thresholding/test.vcd
$date
	Sun Dec  7 01:32:11 2014
$end
$version
	Icarus Verilog
$end
$timescale
	1s
$end
$scope module processor_tb $end
$scope module MIPS $end
$var wire 1 ! _reset $end
$var wire 6 " afunc [5:0] $end
$var wire 32 # alu_in0 [31:0] $end
$var wire 1 $ alu_op $end
$var wire 32 % alu_out [31:0] $end
$var wire 2 & bfunc [1:0] $end
$var wire 1 ' bu_out $end
$var wire 1 ( clk $end
$var wire 1 ) d_in $end
$var wire 30 * daddr [31:2] $end
$var wire 32 + dc_din [31:0] $end
$var wire 32 , dc_out [31:0] $end
$var wire 3 - dfunc [2:0] $end
$var wire 32 . din [31:0] $end
$var wire 32 / dout [31:0] $end
$var wire 30 0 iaddr [31:2] $end
$var wire 32 1 idata [31:0] $end
$var wire 32 2 r0 [31:0] $end
$var wire 32 3 r1 [31:0] $end
$var wire 32 4 r2 [31:0] $end
$var wire 1 5 reg_in $end
$var wire 5 6 rsel0 [4:0] $end
$var wire 5 7 rsel1 [4:0] $end
$var wire 5 8 rsel2 [4:0] $end
$var wire 1 9 rw $end
$scope module c $end
$var wire 1 : _and $end
$var wire 1 ; _nor $end
$var wire 1 < _or $end
$var wire 1 ! _reset $end
$var wire 1 = _xor $end
$var wire 1 > add $end
$var wire 1 ? addi $end
$var wire 1 @ addiu $end
$var wire 1 A addu $end
$var wire 1 B andi $end
$var wire 1 C beq $end
$var wire 1 D bgtz $end
$var wire 1 E blez $end
$var wire 1 F bne $end
$var wire 1 G break $end
$var wire 1 H cache $end
$var wire 1 ( clk $end
$var wire 1 I cop0 $end
$var wire 1 J cop1 $end
$var wire 1 K cop1x $end
$var wire 32 L din [31:0] $end
$var wire 1 M div $end
$var wire 1 N divu $end
$var wire 6 O funct [5:0] $end
$var wire 16 P imme [15:0] $end
$var wire 32 Q inst [31:0] $end
$var wire 1 R j $end
$var wire 1 S jal $end
$var wire 1 T jalr $end
$var wire 1 U jr $end
$var wire 1 V lb $end
$var wire 1 W lbu $end
$var wire 1 X ldc1 $end
$var wire 1 Y lh $end
$var wire 1 Z lhu $end
$var wire 1 [ ll $end
$var wire 1 \ lui $end
$var wire 1 ] lw $end
$var wire 1 ^ lwc1 $end
$var wire 1 _ lwl $end
$var wire 1 ` lwr $end
$var wire 1 a mfhi $end
$var wire 1 b mflo $end
$var wire 1 c movci $end
$var wire 1 d movn $end
$var wire 1 e movz $end
$var wire 1 f mthi $end
$var wire 1 g mtlo $end
$var wire 1 h mult $end
$var wire 1 i multu $end
$var wire 26 j offset [25:0] $end
$var wire 6 k opcode [5:0] $end
$var wire 1 l ori $end
$var wire 1 m perf $end
$var wire 1 n r1 $end
$var wire 1 o r10 $end
$var wire 1 p r11 $end
$var wire 1 q r12 $end
$var wire 1 r r13 $end
$var wire 1 s r14 $end
$var wire 1 t r15 $end
$var wire 1 u r16 $end
$var wire 1 v r17 $end
$var wire 1 w r18 $end
$var wire 1 x r19 $end
$var wire 1 y r2 $end
$var wire 1 z r20 $end
$var wire 1 { r21 $end
$var wire 1 | r22 $end
$var wire 1 } r23 $end
$var wire 1 ~ r24 $end
$var wire 1 !" r25 $end
$var wire 1 "" r26 $end
$var wire 1 #" r27 $end
$var wire 1 $" r28 $end
$var wire 1 %" r29 $end
$var wire 1 &" r3 $end
$var wire 1 '" r30 $end
$var wire 1 (" r31 $end
$var wire 1 )" r32 $end
$var wire 1 *" r33 $end
$var wire 1 +" r34 $end
$var wire 1 ," r35 $end
$var wire 1 -" r36 $end
$var wire 1 ." r37 $end
$var wire 1 /" r38 $end
$var wire 1 0" r39 $end
$var wire 1 1" r4 $end
$var wire 1 2" r40 $end
$var wire 1 3" r41 $end
$var wire 1 4" r42 $end
$var wire 1 5" r43 $end
$var wire 1 6" r44 $end
$var wire 1 7" r45 $end
$var wire 1 8" r46 $end
$var wire 1 9" r47 $end
$var wire 1 :" r48 $end
$var wire 1 ;" r49 $end
$var wire 1 <" r5 $end
$var wire 1 =" r50 $end
$var wire 1 >" r6 $end
$var wire 1 ?" r7 $end
$var wire 1 @" r8 $end
$var wire 1 A" r9 $end
$var wire 5 B" rd [4:0] $end
$var wire 1 C" regimm $end
$var wire 5 D" rs [4:0] $end
$var wire 5 E" rt [4:0] $end
$var wire 1 F" sb $end
$var wire 1 G" sc $end
$var wire 1 H" sdc1 $end
$var wire 1 I" sh $end
$var wire 5 J" shamt [4:0] $end
$var wire 1 K" sll $end
$var wire 1 L" sllv $end
$var wire 1 M" slt $end
$var wire 1 N" slti $end
$var wire 1 O" sltiu $end
$var wire 1 P" sltu $end
$var wire 1 Q" special $end
$var wire 1 R" special2 $end
$var wire 1 S" sra $end
$var wire 1 T" srav $end
$var wire 1 U" srl $end
$var wire 1 V" srlv $end
$var wire 1 W" sub $end
$var wire 1 X" subu $end
$var wire 1 Y" sw $end
$var wire 1 Z" swc1 $end
$var wire 1 [" swl $end
$var wire 1 \" swr $end
$var wire 1 ]" sync $end
$var wire 1 ^" syscall $end
$var wire 1 _" teq $end
$var wire 1 `" tge $end
$var wire 1 a" tgeu $end
$var wire 1 b" tlt $end
$var wire 1 c" tltu $end
$var wire 1 d" tne $end
$var wire 1 e" xori $end
$var reg 1 f" alu_op $end
$var reg 2 g" bfunc [1:0] $end
$var reg 1 h" d_in $end
$var reg 3 i" dfunc [2:0] $end
$var reg 32 j" dout [31:0] $end
$var reg 6 k" func [5:0] $end
$var reg 30 l" iaddr [31:2] $end
$var reg 2 m" j_mode [1:0] $end
$var reg 1 n" reg_in $end
$var reg 5 o" rsel0 [4:0] $end
$var reg 5 p" rsel1 [4:0] $end
$var reg 5 q" rsel2 [4:0] $end
$var reg 1 r" rw $end
$upscope $end
$scope module r $end
$var wire 1 ! _reset $end
$var wire 1 ( clk $end
$var wire 32 s" in [31:0] $end
$var wire 32 t" out0 [31:0] $end
$var wire 32 u" out1 [31:0] $end
$var wire 5 v" sel0 [4:0] $end
$var wire 5 w" sel1 [4:0] $end
$var wire 5 x" sel2 [4:0] $end
$upscope $end
$scope module a $end
$var wire 6 y" func [5:0] $end
$var wire 32 z" in0 [31:0] $end
$var wire 32 {" in1 [31:0] $end
$var reg 32 |" hi [31:0] $end
$var reg 32 }" lo [31:0] $end
$var reg 32 ~" out [31:0] $end
$upscope $end
$scope module b $end
$var wire 2 !# func [1:0] $end
$var wire 32 "# in0 [31:0] $end
$var wire 32 ## in1 [31:0] $end
$var reg 1 $# out $end
$upscope $end
$scope module dc $end
$var wire 32 %# _addr [31:0] $end
$var wire 32 &# _in [31:0] $end
$var wire 30 '# addr [31:2] $end
$var wire 32 (# base [31:0] $end
$var wire 8 )# byte [7:0] $end
$var wire 32 *# din [31:0] $end
$var wire 3 +# func [2:0] $end
$var wire 16 ,# halfword [15:0] $end
$var wire 32 -# in [31:0] $end
$var wire 16 .# offset [15:0] $end
$var wire 32 /# rin [31:0] $end
$var wire 1 9 rw $end
$var reg 32 0# out [31:0] $end
$upscope $end
$scope module i $end
$var wire 30 1# addr [31:2] $end
$var wire 32 2# data [31:0] $end
$upscope $end
$scope module d $end
$var wire 30 3# addr [31:2] $end
$var wire 1 ( clk $end
$var wire 32 4# in [31:0] $end
$var wire 32 5# out [31:0] $end
$var wire 1 9 rw $end
$upscope $end
$scope module m_alu $end
$var wire 32 6# in0 [31:0] $end
$var wire 32 7# in1 [31:0] $end
$var wire 32 8# out [31:0] $end
$var wire 1 $ sel $end
$upscope $end
$scope module m_reg $end
$var wire 32 9# in0 [31:0] $end
$var wire 32 :# in1 [31:0] $end
$var wire 32 ;# out [31:0] $end
$var wire 1 5 sel $end
$upscope $end
$scope module m_din $end
$var wire 32 <# in0 [31:0] $end
$var wire 32 =# in1 [31:0] $end
$var wire 32 ># out [31:0] $end
$var wire 1 ) sel $end
$upscope $end
$upscope $end
$upscope $end
$enddefinitions $end
#0
$dumpvars
b0 >#
b1 =#
b0 <#
b0 ;#
b11111111111111111111111110011010 :#
b0 9#
b0 8#
b0 7#
b0 6#
b10011010 5#
b11111111111111111111111110011010 4#
b0 3#
bx 2#
b111111111111111111111111111111 1#
b11111111111111111111111110011010 0#
b0 /#
b0 .#
b10011010 -#
b10011010 ,#
b0 +#
b10011010 *#
b10011010 )#
b0 (#
b0 '#
b0 &#
b0 %#
1$#
b0 ##
b0 "#
b0 !#
b0 ~"
bx }"
bx |"
b0 {"
b0 z"
b0 y"
b0 x"
b0 w"
b0 v"
b0 u"
b0 t"
b0 s"
0r"
b0 q"
b0 p"
b0 o"
0n"
b0 m"
b111111111111111111111111111111 l"
b0 k"
b0 j"
b0 i"
0h"
b0 g"
0f"
xe"
xd"
xc"
xb"
xa"
x`"
x_"
x^"
x]"
x\"
x["
xZ"
xY"
xX"
xW"
xV"
xU"
xT"
xS"
xR"
xQ"
xP"
xO"
xN"
xM"
xL"
xK"
bx J"
xI"
xH"
xG"
xF"
bx E"
bx D"
xC"
bx B"
xA"
x@"
x?"
x>"
x="
x<"
x;"
x:"
x9"
x8"
x7"
x6"
x5"
x4"
x3"
x2"
x1"
x0"
x/"
x."
x-"
x,"
x+"
x*"
x)"
x("
x'"
x&"
x%"
x$"
x#"
x""
x!"
x~
x}
x|
x{
xz
xy
xx
xw
xv
xu
xt
xs
xr
xq
xp
xo
xn
xm
xl
bx k
bx j
xi
xh
xg
xf
xe
xd
xc
xb
xa
x`
x_
x^
x]
x\
x[
xZ
xY
xX
xW
xV
xU
xT
xS
xR
bx Q
bx P
bx O
xN
xM
b0 L
xK
xJ
xI
xH
xG
xF
xE
xD
xC
xB
xA
x@
x?
x>
x=
x<
x;
x:
09
b0 8
b0 7
b0 6
05
b0 4
b0 3
b0 2
bx 1
b111111111111111111111111111111 0
b0 /
b0 .
b0 -
b11111111111111111111111110011010 ,
b10011010 +
b0 *
0)
0(
1'
b0 &
b0 %
0$
b0 #
b0 "
0!
$end
#1
1!
#2
b100000 k"
b100000 "
b100000 y"
b1 q"
b1 8
b1 x"
1>
0="
0;"
0:"
09"
08"
07"
06"
05"
04"
0d"
03"
0_"
0c"
0b"
0a"
0`"
02"
00"
0/"
0."
0P"
0M"
0-"
0,"
0;
0=
0<
0:
0X"
0W"
0A
0+"
0*"
0)"
0("
0N
0M
0i
0h
0'"
0%"
0$"
0#"
0g
0b
0f
0a
0]"
0""
0G
0^"
0d
0e
0T
0U
0T"
0V"
0!"
0L"
0S"
0U"
0c
0K"
1Q"
0C"
0R
0S
0C
0F
0E
0D
0?
0@
0N"
0O"
0B
0l
0e"
0\
0I
0J
0n
0K
0y
0&"
01"
0<"
0>"
0?"
0@"
0A"
0R"
0o
0p
0q
0V
0Y
0_
0]
0W
0Z
0`
0r
0F"
0I"
0["
0Y"
0s
0t
0\"
0H
0[
0^
0u
0m
0v
0X
0w
0x
0G"
0Z"
0z
0{
0|
0H"
0}
0~
b100000100000 j
b100000100000 P
b0 k
b0 D"
b0 E"
b1 B"
b0 J"
b100000 O
b0 l"
b100000100000 1
b100000100000 Q
b100000100000 2#
b0 0
b0 1#
1(
#4
0(
#6
b0 0#
b0 ,
b0 4#
b0 :#
b1100000 -#
b0 ,#
b0 )#
b11111111 4
b11111111 s"
b11111111 ;#
b1100000 +
b1100000 *#
b1100000 5#
b111111 *
b111111 '#
b111111 3#
b11111111 ~"
b11111111 %
b11111111 9#
b11111111 .#
b11111111 %#
b11111111 #
b11111111 z"
b11111111 8#
b11111111 j"
b11111111 /
b11111111 7#
1f"
1$
0="
0>
0Q"
1@
b0 p"
b0 7
b0 w"
b1010000000011111111 j
b11111111 P
b1001 k
b101 E"
b0 B"
b11 J"
b111111 O
b101 q"
b101 8
b101 x"
b100001 k"
b100001 "
b100001 y"
b1 l"
b100100000001010000000011111111 1
b100100000001010000000011111111 Q
b100100000001010000000011111111 2#
b1 0
b1 1#
1(
#8
0(
#10
b1000000000000000000 0#
b1000000000000000000 ,
b1000000000000000000 4#
b1000000000000000000 :#
b10011010 )#
b10011010 -#
b10011010 ,#
b10011010 +
b10011010 *#
b10011010 5#
b1 *
b1 '#
b1 3#
b1000000000000000000 4
b1000000000000000000 s"
b1000000000000000000 ;#
1n"
15
b111 i"
b111 -
b111 +#
b100 .#
b100 %#
b0 ~"
b0 %
b0 9#
b0 #
b0 z"
b0 8#
0@
1\
b1100000000000000100 j
b100 P
b1111 k
b110 E"
b0 J"
b100 O
b100 j"
b100 /
b100 7#
b110 q"
b110 8
b110 x"
b0 k"
b0 "
b0 y"
0f"
0$
b10 l"
b111100000001100000000000000100 1
b111100000001100000000000000100 Q
b111100000001100000000000000100 2#
b10 0
b10 1#
1(
#12
0(
#14
b11111111111111111111111110011010 0#
b11111111111111111111111110011010 ,
b11111111111111111111111110011010 4#
b11111111111111111111111110011010 :#
b1000000000000000000 &#
0$#
b0 =#
0'
b1000000000000000000 3
b1000000000000000000 u"
b1000000000000000000 {"
b1000000000000000000 ##
b1000000000000000000 /#
b101011 k"
b101011 "
b101011 y"
b110 p"
b110 7
b110 w"
b10011010 -#
b10011010 ,#
b10011010 )#
1P"
b0 4
b0 s"
b0 ;#
b10011010 +
b10011010 *#
b10011010 5#
b0 *
b0 '#
b0 3#
b0 .#
b0 %#
1Q"
0\
b1 o"
b1 6
b1 v"
b1001100001000000101011 j
b1000000101011 P
b0 k
b1 D"
b10 B"
b101011 O
b0 j"
b0 /
b0 7#
b0 i"
b0 -
b0 +#
b10 q"
b10 8
b10 x"
0n"
05
b11 l"
b1001100001000000101011 1
b1001100001000000101011 Q
b1001100001000000101011 2#
b11 0
b11 1#
1(
#16
0(
#18
b0 &#
b0 4
b0 s"
b0 ;#
1h"
1)
b11 g"
b11 &
b11 !#
b1 m"
0P"
0e
b0 3
b0 u"
b0 {"
b0 ##
b0 /#
b0 ~"
b0 %
b0 9#
0Q"
1D
b10000000000000000001010 j
b1010 P
b111 k
b10 D"
b0 E"
b0 B"
b1010 O
b10 o"
b10 6
b10 v"
b0 p"
b0 7
b0 w"
b0 q"
b0 8
b0 x"
b0 k"
b0 "
b0 y"
b100 l"
b11100010000000000000000001010 1
b11100010000000000000000001010 Q
b11100010000000000000000001010 2#
b100 0
b100 1#
1(
#20
0(
#22
b0 0#
b0 ,
b0 4#
b0 :#
b0 )#
b0 ,#
b10 #
b10 z"
b10 8#
b10 .#
b10 %#
1f"
1$
b10 j"
b10 /
b10 7#
b11 q"
b11 8
b11 x"
1K"
1$#
b1 =#
1'
1Q"
0D
b1 p"
b1 7
b1 w"
b10001100010000000 j
b1100010000000 P
b0 k
b0 D"
b1 E"
b11 B"
b10 J"
b0 O
b0 g"
b0 &
b0 !#
b0 o"
b0 6
b0 v"
0h"
0)
b0 m"
b101 l"
b10001100010000000 1
b10001100010000000 Q
b10001100010000000 2#
b101 0
b101 1#
1(
#24
0(
#26
b10011010 4
b10011010 s"
b10011010 ;#
b10011010 0#
b10011010 ,
b10011010 4#
b10011010 :#
b10011010 )#
b10011010 ,#
0K"
1n"
15
b11 i"
b11 -
b11 +#
b0 .#
b0 %#
b0 #
b0 z"
b0 8#
0Q"
1]
b11 o"
b11 6
b11 v"
b11001000000000000000000 j
b0 P
b100011 k
b11 D"
b100 E"
b0 B"
b0 J"
b0 j"
b0 /
b0 7#
b0 p"
b0 7
b0 w"
b100 q"
b100 8
b100 x"
0f"
0$
b110 l"
b10001100011001000000000000000000 1
b10001100011001000000000000000000 Q
b10001100011001000000000000000000 2#
b110 0
b110 1#
1(
#28
0(
#30
b11111111111111111111111110010001 0#
b11111111111111111111111110010001 ,
b11111111111111111111111110010001 4#
b11111111111111111111111110010001 :#
b10010001 )#
b10011010 &#
b10010001 -#
b10010001 ,#
b10011010 3
b10011010 u"
b10011010 {"
b10011010 ##
b10011010 /#
b0 4
b0 s"
b0 ;#
b10010001 +
b10010001 *#
b10010001 5#
b100000 *
b100000 '#
b100000 3#
b10000000 #
b10000000 z"
b10000000 8#
b0 .
b0 L
b0 >#
0$#
b0 =#
0'
b101011 k"
b101011 "
b101011 y"
b100 p"
b100 7
b100 w"
1f"
1$
b10000000 .#
b10000000 %#
b0 2
b0 t"
b0 "#
b0 (#
b0 6#
b0 <#
1O"
0]
b10000000 j"
b10000000 /
b10000000 7#
b100000100000000010000000 j
b10000000 P
b1011 k
b100 D"
b10 E"
b10 J"
b0 i"
b0 -
b0 +#
b0 o"
b0 6
b0 v"
b10 q"
b10 8
b10 x"
0n"
05
b111 l"
b101100100000100000000010000000 1
b101100100000100000000010000000 Q
b101100100000100000000010000000 2#
b111 0
b111 1#
1(
#32
0(
#34
b11111111111111111111111110011010 0#
b11111111111111111111111110011010 ,
b11111111111111111111111110011010 4#
b11111111111111111111111110011010 :#
b10011010 -#
b10011010 ,#
b10011010 )#
b1 .
b1 L
b1 >#
b10011010 +
b10011010 *#
b10011010 5#
b0 *
b0 '#
b0 3#
b0 &#
1$#
b1 =#
1'
1h"
1)
b10 o"
b10 6
b10 v"
b1 m"
b0 .#
b0 %#
b0 3
b0 u"
b0 {"
b0 ##
b0 /#
b0 #
b0 z"
b0 8#
1C
0O"
b10000000000000000000011 j
b11 P
b100 k
b10 D"
b0 E"
b0 J"
b11 O
b0 j"
b0 /
b0 7#
b0 p"
b0 7
b0 w"
b0 q"
b0 8
b0 x"
b0 k"
b0 "
b0 y"
0f"
0$
b1000 l"
b10000010000000000000000000011 1
b10000010000000000000000000011 Q
b10000010000000000000000000011 2#
b1000 0
b1000 1#
1(
#36
0(
#38
b11111111 0#
b11111111 ,
b11111111 4#
b11111111 :#
b11111111 )#
b11111111 ,#
b11111111 4
b11111111 s"
b11111111 ;#
b11111111 -#
b0 .
b0 L
b0 >#
b10011010 &#
b11111111 ~"
b11111111 %
b11111111 9#
1r"
19
b11 i"
b11 -
b11 +#
0$#
b0 =#
0'
b11111111 3
b11111111 u"
b11111111 {"
b11111111 ##
b11111111 /#
0C
1Y"
b0 g"
b0 &
b0 !#
b101 p"
b101 7
b101 w"
b11001010000000000000000 j
b0 P
b101011 k
b11 D"
b101 E"
b0 O
b11 o"
b11 6
b11 v"
0h"
0)
b0 m"
b1011 l"
b10101100011001010000000000000000 1
b10101100011001010000000000000000 Q
b10101100011001010000000000000000 2#
b1011 0
b1011 1#
1(
#40
b11111111 &#
b11111111 +
b11111111 *#
b11111111 5#
0(
#42
b0 0#
b0 ,
b0 4#
b0 :#
b0 )#
b11111111 ,#
b1 4
b1 s"
b1 ;#
b1 #
b1 z"
b1 8#
b0 &#
1$#
b1 =#
1'
b1 ~"
b1 %
b1 9#
b100001 k"
b100001 "
b100001 y"
b1 q"
b1 8
b1 x"
1f"
1$
b1 .#
b1 %#
b11111111 -#
b0 3
b0 u"
b0 {"
b0 ##
b0 /#
1@
0Y"
b1 j"
b1 /
b1 7#
b1000010000000000000001 j
b1 P
b1001 k
b1 D"
b1 E"
b1 O
0r"
09
b0 i"
b0 -
b0 +#
b0 o"
b0 6
b0 v"
b1 p"
b1 7
b1 w"
b1100 l"
b100100001000010000000000000001 1
b100100001000010000000000000001 Q
b100100001000010000000000000001 2#
b1100 0
b1100 1#
1(
#44
b10 4
b10 s"
b10 ;#
b1 &#
0$#
b0 =#
0'
b10 ~"
b10 %
b10 9#
b1 3
b1 u"
b1 {"
b1 ##
b1 /#
0(
#46
b11111111111111111111111111111111 0#
b11111111111111111111111111111111 ,
b11111111111111111111111111111111 4#
b11111111111111111111111111111111 :#
b11111111 )#
b11111111 ,#
b0 4
b0 s"
b0 ;#
b0 &#
1$#
b1 =#
1'
b0 ~"
b0 %
b0 9#
b10 m"
b0 .#
b0 %#
b0 3
b0 u"
b0 {"
b0 ##
b0 /#
b0 #
b0 z"
b0 8#
1R
0@
b11 j
b11 P
b10 k
b0 D"
b0 E"
b11 O
b0 j"
b0 /
b0 7#
b0 p"
b0 7
b0 w"
b0 q"
b0 8
b0 x"
b0 k"
b0 "
b0 y"
0f"
0$
b1101 l"
b1000000000000000000000000011 1
b1000000000000000000000000011 Q
b1000000000000000000000000011 2#
b1101 0
b1101 1#
1(
#48
0(
#50
b0 0#
b0 ,
b0 4#
b0 :#
b0 )#
b1000000000000000000 &#
b1 #
b1 z"
b1 8#
b1 .
b1 L
b1 >#
0$#
b0 =#
0'
b1000000000000000000 3
b1000000000000000000 u"
b1000000000000000000 {"
b1000000000000000000 ##
b1000000000000000000 /#
b1 %#
b1 2
b1 t"
b1 "#
b1 (#
b1 6#
b1 <#
b101011 k"
b101011 "
b101011 y"
b10 q"
b10 8
b10 x"
b110 p"
b110 7
b110 w"
b1 o"
b1 6
b1 v"
1P"
1Q"
0R
b1001100001000000101011 j
b1000000101011 P
b0 k
b1 D"
b110 E"
b10 B"
b101011 O
b0 m"
b11 l"
b1001100001000000101011 1
b1001100001000000101011 Q
b1001100001000000101011 2#
b11 0
b11 1#
1(
#52
0(
#54
b11111111111111111111111111111111 0#
b11111111111111111111111111111111 ,
b11111111111111111111111111111111 4#
b11111111111111111111111111111111 :#
b11111111 )#
b0 #
b0 z"
b0 8#
b0 .
b0 L
b0 >#
b0 &#
b0 4
b0 s"
b0 ;#
1h"
1)
b11 g"
b11 &
b11 !#
b1 m"
0P"
0e
b0 %#
b0 2
b0 t"
b0 "#
b0 (#
b0 6#
b0 <#
b0 3
b0 u"
b0 {"
b0 ##
b0 /#
b0 ~"
b0 %
b0 9#
0Q"
1D
b10000000000000000001010 j
b1010 P
b111 k
b10 D"
b0 E"
b0 B"
b1010 O
b10 o"
b10 6
b10 v"
b0 p"
b0 7
b0 w"
b0 q"
b0 8
b0 x"
b0 k"
b0 "
b0 y"
b100 l"
b11100010000000000000000001010 1
b11100010000000000000000001010 Q
b11100010000000000000000001010 2#
b100 0
b100 1#
1(
#56
0(
#58
b0 0#
b0 ,
b0 4#
b0 :#
b0 )#
b0 ,#
b10 #
b10 z"
b10 8#
b10 .#
b10 %#
1f"
1$
b10 j"
b10 /
b10 7#
b11 q"
b11 8
b11 x"
b100 4
b100 s"
b100 ;#
1K"
b1 &#
b100 ~"
b100 %
b100 9#
b1 3
b1 u"
b1 {"
b1 ##
b1 /#
0$#
b0 =#
0'
1Q"
0D
b1 p"
b1 7
b1 w"
b10001100010000000 j
b1100010000000 P
b0 k
b0 D"
b1 E"
b11 B"
b10 J"
b0 O
b0 g"
b0 &
b0 !#
b0 o"
b0 6
b0 v"
0h"
0)
b0 m"
b101 l"
b10001100010000000 1
b10001100010000000 Q
b10001100010000000 2#
b101 0
b101 1#
1(
#60
0(
#62
b10011010 0#
b10011010 ,
b10011010 4#
b10011010 :#
b10011010 )#
b10011010 -#
b10011010 ,#
0K"
b10011010 4
b10011010 s"
b10011010 ;#
b10011010 +
b10011010 *#
b10011010 5#
b1 *
b1 '#
b1 3#
b100 .
b100 L
b100 >#
b0 &#
b0 ~"
b0 %
b0 9#
1n"
15
b11 i"
b11 -
b11 +#
b100 2
b100 t"
b100 "#
b100 (#
b100 6#
b100 <#
b0 .#
b100 %#
b0 3
b0 u"
b0 {"
b0 ##
b0 /#
b100 #
b100 z"
b100 8#
0Q"
1]
b11 o"
b11 6
b11 v"
b11001000000000000000000 j
b0 P
b100011 k
b11 D"
b100 E"
b0 B"
b0 J"
b0 j"
b0 /
b0 7#
b0 p"
b0 7
b0 w"
b100 q"
b100 8
b100 x"
0f"
0$
b110 l"
b10001100011001000000000000000000 1
b10001100011001000000000000000000 Q
b10001100011001000000000000000000 2#
b110 0
b110 1#
1(
#64
0(
#66
b11111111111111111111111110010001 0#
b11111111111111111111111110010001 ,
b11111111111111111111111110010001 4#
b11111111111111111111111110010001 :#
b10010001 )#
b10011010 &#
b10010001 -#
b10010001 ,#
b10011010 3
b10011010 u"
b10011010 {"
b10011010 ##
b10011010 /#
b0 4
b0 s"
b0 ;#
b10010001 +
b10010001 *#
b10010001 5#
b100000 *
b100000 '#
b100000 3#
b10000000 #
b10000000 z"
b10000000 8#
b0 .
b0 L
b0 >#
b101011 k"
b101011 "
b101011 y"
b100 p"
b100 7
b100 w"
1f"
1$
b10000000 .#
b10000000 %#
b0 2
b0 t"
b0 "#
b0 (#
b0 6#
b0 <#
1O"
0]
b10000000 j"
b10000000 /
b10000000 7#
b100000100000000010000000 j
b10000000 P
b1011 k
b100 D"
b10 E"
b10 J"
b0 i"
b0 -
b0 +#
b0 o"
b0 6
b0 v"
b10 q"
b10 8
b10 x"
0n"
05
b111 l"
b101100100000100000000010000000 1
b101100100000100000000010000000 Q
b101100100000100000000010000000 2#
b111 0
b111 1#
1(
#68
0(
#70
b11111111111111111111111111111111 0#
b11111111111111111111111111111111 ,
b11111111111111111111111111111111 4#
b11111111111111111111111111111111 :#
b11111111 -#
b11111111 ,#
b11111111 )#
b1 .
b1 L
b1 >#
b11111111 +
b11111111 *#
b11111111 5#
b0 *
b0 '#
b0 3#
b0 &#
1$#
b1 =#
1'
1h"
1)
b10 o"
b10 6
b10 v"
b1 m"
b0 .#
b0 %#
b0 3
b0 u"
b0 {"
b0 ##
b0 /#
b0 #
b0 z"
b0 8#
1C
0O"
b10000000000000000000011 j
b11 P
b100 k
b10 D"
b0 E"
b0 J"
b11 O
b0 j"
b0 /
b0 7#
b0 p"
b0 7
b0 w"
b0 q"
b0 8
b0 x"
b0 k"
b0 "
b0 y"
0f"
0$
b1000 l"
b10000010000000000000000000011 1
b10000010000000000000000000011 Q
b10000010000000000000000000011 2#
b1000 0
b1000 1#
1(
#72
0(
#74
b11111111 0#
b11111111 ,
b11111111 4#
b11111111 :#
b111111110000 4
b111111110000 s"
b111111110000 ;#
b100 .
b100 L
b100 >#
b10011010 &#
b111111110000 ~"
b111111110000 %
b111111110000 9#
b10011010 +
b10011010 *#
b10011010 5#
b1 *
b1 '#
b1 3#
b100 #
b100 z"
b100 8#
1r"
19
b11 i"
b11 -
b11 +#
0$#
b0 =#
0'
b11111111 3
b11111111 u"
b11111111 {"
b11111111 ##
b11111111 /#
b100 %#
b100 2
b100 t"
b100 "#
b100 (#
b100 6#
b100 <#
0C
1Y"
b0 g"
b0 &
b0 !#
b101 p"
b101 7
b101 w"
b11001010000000000000000 j
b0 P
b101011 k
b11 D"
b101 E"
b0 O
b11 o"
b11 6
b11 v"
0h"
0)
b0 m"
b1011 l"
b10101100011001010000000000000000 1
b10101100011001010000000000000000 Q
b10101100011001010000000000000000 2#
b1011 0
b1011 1#
1(
#76
b11111111 &#
b11111111 +
b11111111 *#
b11111111 5#
0(
#78
b0 0#
b0 ,
b0 4#
b0 :#
b0 )#
b11111111 ,#
b10 4
b10 s"
b10 ;#
b1 &#
b0 *
b0 '#
b0 3#
b1 #
b1 z"
b1 8#
b0 .
b0 L
b0 >#
0$#
b0 =#
0'
b10 ~"
b10 %
b10 9#
b100001 k"
b100001 "
b100001 y"
b1 q"
b1 8
b1 x"
1f"
1$
b1 .#
b11111111 -#
b1 %#
b0 2
b0 t"
b0 "#
b0 (#
b0 6#
b0 <#
b1 3
b1 u"
b1 {"
b1 ##
b1 /#
1@
0Y"
b1 j"
b1 /
b1 7#
b1000010000000000000001 j
b1 P
b1001 k
b1 D"
b1 E"
b1 O
0r"
09
b0 i"
b0 -
b0 +#
b0 o"
b0 6
b0 v"
b1 p"
b1 7
b1 w"
b1100 l"
b100100001000010000000000000001 1
b100100001000010000000000000001 Q
b100100001000010000000000000001 2#
b1100 0
b1100 1#
1(
#80
b11 4
b11 s"
b11 ;#
b10 &#
b11 ~"
b11 %
b11 9#
b10 3
b10 u"
b10 {"
b10 ##
b10 /#
0(
#82
b11111111111111111111111111111111 0#
b11111111111111111111111111111111 ,
b11111111111111111111111111111111 4#
b11111111111111111111111111111111 :#
b11111111 )#
b11111111 ,#
b0 &#
1$#
b1 =#
1'
b0 4
b0 s"
b0 ;#
b10 m"
b0 .#
b0 %#
b0 3
b0 u"
b0 {"
b0 ##
b0 /#
b0 ~"
b0 %
b0 9#
b0 #
b0 z"
b0 8#
1R
0@
b11 j
b11 P
b10 k
b0 D"
b0 E"
b11 O
b0 j"
b0 /
b0 7#
b0 p"
b0 7
b0 w"
b0 q"
b0 8
b0 x"
b0 k"
b0 "
b0 y"
0f"
0$
b1101 l"
b1000000000000000000000000011 1
b1000000000000000000000000011 Q
b1000000000000000000000000011 2#
b1101 0
b1101 1#
1(
#84
0(
#86
b0 0#
b0 ,
b0 4#
b0 :#
b0 )#
b0 ,#
b1000000000000000000 &#
b10 #
b10 z"
b10 8#
b10 .
b10 L
b10 >#
0$#
b0 =#
0'
b1000000000000000000 3
b1000000000000000000 u"
b1000000000000000000 {"
b1000000000000000000 ##
b1000000000000000000 /#
b10 %#
b10 2
b10 t"
b10 "#
b10 (#
b10 6#
b10 <#
b101011 k"
b101011 "
b101011 y"
b10 q"
b10 8
b10 x"
b110 p"
b110 7
b110 w"
b1 o"
b1 6
b1 v"
1P"
1Q"
0R
b1001100001000000101011 j
b1000000101011 P
b0 k
b1 D"
b110 E"
b10 B"
b101011 O
b0 m"
b11 l"
b1001100001000000101011 1
b1001100001000000101011 Q
b1001100001000000101011 2#
b11 0
b11 1#
1(
#88
0(
